\babel@toc {russian}{}
\contentsline {section}{\IeC {\CYRV }\IeC {\cyrv }\IeC {\cyre }\IeC {\cyrd }\IeC {\cyre }\IeC {\cyrn }\IeC {\cyri }\IeC {\cyre }}{2}% 
\contentsline {section}{\numberline {1}\IeC {\CYRA }\IeC {\cyrn }\IeC {\cyra }\IeC {\cyrl }\IeC {\cyri }\IeC {\cyrt }\IeC {\cyri }\IeC {\cyrch }\IeC {\cyre }\IeC {\cyrs }\IeC {\cyrk }\IeC {\cyra }\IeC {\cyrya } \IeC {\cyrch }\IeC {\cyra }\IeC {\cyrs }\IeC {\cyrt }\IeC {\cyrsftsn }}{3}% 
\contentsline {subsection}{\numberline {1.1}\IeC {\CYRO }\IeC {\cyrp }\IeC {\cyri }\IeC {\cyrs }\IeC {\cyra }\IeC {\cyrn }\IeC {\cyri }\IeC {\cyre } \IeC {\cyrs }\IeC {\cyrt }\IeC {\cyrr }\IeC {\cyra }\IeC {\cyrh }\IeC {\cyro }\IeC {\cyrv }\IeC {\cyro }\IeC {\cyrishrt } \IeC {\cyrk }\IeC {\cyro }\IeC {\cyrm }\IeC {\cyrp }\IeC {\cyra }\IeC {\cyrn }\IeC {\cyri }\IeC {\cyri } \IeC {\CYRP }\IeC {\CYRA }\IeC {\CYRO } \IeC {\CYRS }\IeC {\CYRK } \IeC {\guillemotleft }\IeC {\CYRR }\IeC {\cyro }\IeC {\cyrs }\IeC {\cyrg }\IeC {\cyro }\IeC {\cyrs }\IeC {\cyrs }\IeC {\cyrt }\IeC {\cyrr }\IeC {\cyra }\IeC {\cyrh }\IeC {\guillemotright }}{3}% 
\contentsline {subsection}{\numberline {1.2}\IeC {\CYRN }\IeC {\cyra }\IeC {\cyrb }\IeC {\cyro }\IeC {\cyrr } \IeC {\cyro }\IeC {\cyrb }\IeC {\cyro }\IeC {\cyrr }\IeC {\cyru }\IeC {\cyrd }\IeC {\cyro }\IeC {\cyrv }\IeC {\cyra }\IeC {\cyrn }\IeC {\cyri }\IeC {\cyrya }, \IeC {\cyrp }\IeC {\cyro }\IeC {\cyrm }\IeC {\cyre }\IeC {\cyrshch }\IeC {\cyre }\IeC {\cyrn }\IeC {\cyri }\IeC {\cyre } \IeC {\CYRP }\IeC {\CYRA }\IeC {\CYRO } \IeC {\CYRS }\IeC {\CYRK } \IeC {\guillemotleft }\IeC {\CYRR }\IeC {\cyro }\IeC {\cyrs }\IeC {\cyrg }\IeC {\cyro }\IeC {\cyrs }\IeC {\cyrs }\IeC {\cyrt }\IeC {\cyrr }\IeC {\cyra }\IeC {\cyrh }\IeC {\guillemotright }}{3}% 
\contentsline {subsection}{\numberline {1.3}\IeC {\CYRO }\IeC {\cyrr }\IeC {\cyrg }\IeC {\cyra }\IeC {\cyrn }\IeC {\cyri }\IeC {\cyrz }\IeC {\cyra }\IeC {\cyrc }\IeC {\cyri }\IeC {\cyro }\IeC {\cyrn }\IeC {\cyrn }\IeC {\cyro }-\IeC {\cyrsh }\IeC {\cyrt }\IeC {\cyra }\IeC {\cyrt }\IeC {\cyrn }\IeC {\cyra }\IeC {\cyrya } \IeC {\cyrs }\IeC {\cyrt }\IeC {\cyrr }\IeC {\cyru }\IeC {\cyrk }\IeC {\cyrt }\IeC {\cyru }\IeC {\cyrr }\IeC {\cyra } \IeC {\CYRP }\IeC {\CYRA }\IeC {\CYRO } \IeC {\CYRS }\IeC {\CYRK } \IeC {\guillemotleft }\IeC {\CYRR }\IeC {\cyro }\IeC {\cyrs }\IeC {\cyrg }\IeC {\cyro }\IeC {\cyrs }\IeC {\cyrs }\IeC {\cyrt }\IeC {\cyrr }\IeC {\cyra }\IeC {\cyrh }\IeC {\guillemotright }}{4}% 
\contentsline {subsection}{\numberline {1.4}\IeC {\CYRH }\IeC {\cyra }\IeC {\cyrr }\IeC {\cyra }\IeC {\cyrk }\IeC {\cyrt }\IeC {\cyre }\IeC {\cyrr }\IeC {\cyri }\IeC {\cyrs }\IeC {\cyrt }\IeC {\cyri }\IeC {\cyrk }\IeC {\cyri } \IeC {\cyri } \IeC {\cyrt }\IeC {\cyrr }\IeC {\cyre }\IeC {\cyrb }\IeC {\cyro }\IeC {\cyrv }\IeC {\cyra }\IeC {\cyrn }\IeC {\cyri }\IeC {\cyrya } \IeC {\cyrp }\IeC {\cyrr }\IeC {\cyre }\IeC {\cyrd }\IeC {\cyrp }\IeC {\cyrr }\IeC {\cyri }\IeC {\cyrya }\IeC {\cyrt }\IeC {\cyri }\IeC {\cyrya } \IeC {\CYRP }\IeC {\CYRA }\IeC {\CYRO } \IeC {\CYRS }\IeC {\CYRK } \IeC {\guillemotleft }\IeC {\CYRR }\IeC {\cyro }\IeC {\cyrs }\IeC {\cyrg }\IeC {\cyro }\IeC {\cyrs }\IeC {\cyrs }\IeC {\cyrt }\IeC {\cyrr }\IeC {\cyra }\IeC {\cyrh }\IeC {\guillemotright } \IeC {\cyrk } \IeC {\cyrp }\IeC {\cyro }\IeC {\cyrs }\IeC {\cyrt }\IeC {\cyrr }\IeC {\cyro }\IeC {\cyre }\IeC {\cyrn }\IeC {\cyri }\IeC {\cyryu } \IeC {\cyrl }\IeC {\cyro }\IeC {\cyrk }\IeC {\cyra }\IeC {\cyrl }\IeC {\cyrsftsn }\IeC {\cyrn }\IeC {\cyro }\IeC {\cyrishrt } \IeC {\cyrs }\IeC {\cyre }\IeC {\cyrt }\IeC {\cyri }}{4}% 
\contentsline {section}{\numberline {2}\IeC {\CYRR }\IeC {\cyra }\IeC {\cyrz }\IeC {\cyrr }\IeC {\cyra }\IeC {\cyrb }\IeC {\cyro }\IeC {\cyrt }\IeC {\cyrk }\IeC {\cyra } \IeC {\cyrl }\IeC {\cyro }\IeC {\cyrk }\IeC {\cyra }\IeC {\cyrl }\IeC {\cyrsftsn }\IeC {\cyrn }\IeC {\cyro }\IeC {\cyrishrt } \IeC {\cyrv }\IeC {\cyrery }\IeC {\cyrch }\IeC {\cyri }\IeC {\cyrs }\IeC {\cyrl }\IeC {\cyri }\IeC {\cyrt }\IeC {\cyre }\IeC {\cyrl }\IeC {\cyrsftsn }\IeC {\cyrn }\IeC {\cyro }\IeC {\cyrishrt } \IeC {\cyrch }\IeC {\cyra }\IeC {\cyrs }\IeC {\cyrt }\IeC {\cyri }}{6}% 
\contentsline {subsection}{\numberline {2.1}\IeC {\CYRM }\IeC {\cyre }\IeC {\cyrr }\IeC {\cyro }\IeC {\cyrp }\IeC {\cyrr }\IeC {\cyri }\IeC {\cyrya }\IeC {\cyrt }\IeC {\cyri }\IeC {\cyrya } \IeC {\cyrp }\IeC {\cyro } \IeC {\cyrp }\IeC {\cyro }\IeC {\cyrv }\IeC {\cyrery }\IeC {\cyrsh }\IeC {\cyre }\IeC {\cyrn }\IeC {\cyri }\IeC {\cyryu } \IeC {\cyrz }\IeC {\cyra }\IeC {\cyrshch }\IeC {\cyri }\IeC {\cyrshch }\IeC {\cyre }\IeC {\cyrn }\IeC {\cyrn }\IeC {\cyro }\IeC {\cyrs }\IeC {\cyrt }\IeC {\cyri } \IeC {\cyrl }\IeC {\cyro }\IeC {\cyrk }\IeC {\cyra }\IeC {\cyrl }\IeC {\cyrsftsn }\IeC {\cyrn }\IeC {\cyro }\IeC {\cyrishrt } \IeC {\cyrs }\IeC {\cyre }\IeC {\cyrt }\IeC {\cyri }}{6}% 
\contentsline {subsection}{\numberline {2.2}\IeC {\CYRV }\IeC {\cyrn }\IeC {\cyre }\IeC {\cyrd }\IeC {\cyrr }\IeC {\cyre }\IeC {\cyrn }\IeC {\cyri }\IeC {\cyre } \IeC {\cyrk }\IeC {\cyro }\IeC {\cyrm }\IeC {\cyrp }\IeC {\cyrl }\IeC {\cyre }\IeC {\cyrk }\IeC {\cyrs }\IeC {\cyrn }\IeC {\cyro }\IeC {\cyrishrt } \IeC {\cyrz }\IeC {\cyra }\IeC {\cyrshch }\IeC {\cyri }\IeC {\cyrt }\IeC {\cyrery } \IeC {\cyri }\IeC {\cyrn }\IeC {\cyrf }\IeC {\cyro }\IeC {\cyrr }\IeC {\cyrm }\IeC {\cyra }\IeC {\cyrc }\IeC {\cyri }\IeC {\cyri }}{7}% 
\contentsline {section}{\numberline {3}\IeC {\CYRI }\IeC {\cyrs }\IeC {\cyrp }\IeC {\cyro }\IeC {\cyrl }\IeC {\cyrsftsn }\IeC {\cyrz }\IeC {\cyro }\IeC {\cyrv }\IeC {\cyra }\IeC {\cyrn }\IeC {\cyri }\IeC {\cyre } GnuPlot \IeC {\cyrv } \IeC {\cyro }\IeC {\cyrf }\IeC {\cyro }\IeC {\cyrr }\IeC {\cyrm }\IeC {\cyrl }\IeC {\cyre }\IeC {\cyrn }\IeC {\cyri }\IeC {\cyri } \IeC {\cyrg }\IeC {\cyrr }\IeC {\cyra }\IeC {\cyrf }\IeC {\cyri }\IeC {\cyrk }\IeC {\cyro }\IeC {\cyrv }}{8}% 
\contentsline {subsection}{\numberline {3.1}\IeC {\CYRI }\IeC {\cyrs }\IeC {\cyrh }\IeC {\cyro }\IeC {\cyrd }\IeC {\cyrn }\IeC {\cyrery }\IeC {\cyre } \IeC {\cyrd }\IeC {\cyra }\IeC {\cyrn }\IeC {\cyrn }\IeC {\cyrery }\IeC {\cyre }}{8}% 
\contentsline {subsection}{\numberline {3.2}\IeC {\CYRA }\IeC {\cyrl }\IeC {\cyrg }\IeC {\cyro }\IeC {\cyrr }\IeC {\cyri }\IeC {\cyrt }\IeC {\cyrm } \IeC {\cyrr }\IeC {\cyra }\IeC {\cyrb }\IeC {\cyro }\IeC {\cyrt }\IeC {\cyrery } \IeC {\cyrs } GnuPlot}{8}% 
\contentsline {subsection}{\numberline {3.3}\IeC {\CYRK }\IeC {\cyro }\IeC {\cyrd } \IeC {\cyrs }\IeC {\cyrk }\IeC {\cyrr }\IeC {\cyri }\IeC {\cyrp }\IeC {\cyrt }\IeC {\cyra }}{8}% 
\contentsline {subsection}{\numberline {3.4}\IeC {\CYRG }\IeC {\cyrr }\IeC {\cyra }\IeC {\cyrf }\IeC {\cyri }\IeC {\cyrk }\IeC {\cyri } \IeC {\cyri } \IeC {\cyri }\IeC {\cyrh } \IeC {\cyro }\IeC {\cyrp }\IeC {\cyri }\IeC {\cyrs }\IeC {\cyra }\IeC {\cyrn }\IeC {\cyri }\IeC {\cyre }}{10}% 
\contentsline {section}{\IeC {\CYRZ }\IeC {\cyra }\IeC {\cyrk }\IeC {\cyrl }\IeC {\cyryu }\IeC {\cyrch }\IeC {\cyre }\IeC {\cyrn }\IeC {\cyri }\IeC {\cyre }}{11}% 
\contentsline {section}{\IeC {\CYRS }\IeC {\cyrp }\IeC {\cyri }\IeC {\cyrs }\IeC {\cyro }\IeC {\cyrk } \IeC {\cyrl }\IeC {\cyri }\IeC {\cyrt }\IeC {\cyre }\IeC {\cyrr }\IeC {\cyra }\IeC {\cyrt }\IeC {\cyru }\IeC {\cyrr }\IeC {\cyrery }}{12}% 
